D:\учеба\Loader\src\main\java\peter\service\FileService.java
D:\учеба\Loader\src\main\java\peter\web\DownloadServlet.java
D:\учеба\Loader\src\main\java\peter\web\UploadServlet.java
D:\учеба\Loader\src\main\java\peter\web\StartedServlet.java
